{
	"database":"cms_llc",
	"outputs":[
		 {
			"output":   "form/output_file_2.fm2",				
				
			"template": "qform/form_template/_master_D2_1Gp_1Gp_01b.fm2",
		"primary_table":"activity",
				"generate":[
					 {
							"container":"cntDetail1", 
							"fields":[
								 "contact.*"
							]
					 },
					 {
						"container":"cntDetail2", 
						"fields":[
							 "activity.*"
						]
					 }

				]
		 }
	]
}